lab2/simulation/qsim/Lab2.msim.vcd
$comment
	File created using the following command:
		vcd file Lab2.msim.vcd -direction
$end
$date
	Mon Sep 21 09:33:07 2020
$end
$version
	ModelSim Version 10.5b
$end
$timescale
	1ps
$end

$scope module Lab2_vlg_vec_tst $end
$var reg 1 ! CLOCK $end
$var reg 1 " DIN0 $end
$var reg 1 # DIN1 $end
$var reg 1 $ FETCH $end
$var reg 1 % LDSBR $end
$var reg 1 & SAR0 $end
$var reg 1 ' SAR1 $end
$var reg 1 ( STORE $end
$var wire 1 ) Equal $end
$var wire 1 * Q00 $end
$var wire 1 + Q01 $end
$var wire 1 , Q02 $end
$var wire 1 - Q03 $end
$var wire 1 . Q10 $end
$var wire 1 / Q11 $end
$var wire 1 0 Q12 $end
$var wire 1 1 Q13 $end
$var wire 1 2 SBR0 $end
$var wire 1 3 SBR1 $end
$var wire 1 4 TESTS1 $end
$var wire 1 5 TESTS2 $end

$scope module i1 $end
$var wire 1 6 gnd $end
$var wire 1 7 vcc $end
$var wire 1 8 unknown $end
$var tri1 1 9 devclrn $end
$var tri1 1 : devpor $end
$var tri1 1 ; devoe $end
$var wire 1 < SBR1~output_o $end
$var wire 1 = SBR0~output_o $end
$var wire 1 > Q00~output_o $end
$var wire 1 ? Q01~output_o $end
$var wire 1 @ Q02~output_o $end
$var wire 1 A Q03~output_o $end
$var wire 1 B Q10~output_o $end
$var wire 1 C Q11~output_o $end
$var wire 1 D Q12~output_o $end
$var wire 1 E Q13~output_o $end
$var wire 1 F TESTS1~output_o $end
$var wire 1 G TESTS2~output_o $end
$var wire 1 H Equal~output_o $end
$var wire 1 I CLOCK~input_o $end
$var wire 1 J CLOCK~inputclkctrl_outclk $end
$var wire 1 K STORE~input_o $end
$var wire 1 L SAR0~input_o $end
$var wire 1 M SAR1~input_o $end
$var wire 1 N inst2|15~0_combout $end
$var wire 1 O inst2|15~q $end
$var wire 1 P inst2|14~0_combout $end
$var wire 1 Q inst2|14~q $end
$var wire 1 R inst|sub|110~combout $end
$var wire 1 S TWOMX|23~0_combout $end
$var wire 1 T SR1|41~q $end
$var wire 1 U SR1|40~feeder_combout $end
$var wire 1 V SR1|40~q $end
$var wire 1 W SR1|39~feeder_combout $end
$var wire 1 X SR1|39~q $end
$var wire 1 Y SR1|38~feeder_combout $end
$var wire 1 Z SR1|38~q $end
$var wire 1 [ FETCH~input_o $end
$var wire 1 \ DIN1~input_o $end
$var wire 1 ] LDSBR~input_o $end
$var wire 1 ^ THREEMX|10~0_combout $end
$var wire 1 _ inst9~0_combout $end
$var wire 1 ` inst9~combout $end
$var wire 1 a THREEMX|10~1_combout $end
$var wire 1 b DFF|10~q $end
$var wire 1 c TWOMX|22~0_combout $end
$var wire 1 d SR0|41~q $end
$var wire 1 e SR0|40~feeder_combout $end
$var wire 1 f SR0|40~q $end
$var wire 1 g SR0|39~feeder_combout $end
$var wire 1 h SR0|39~q $end
$var wire 1 i SR0|38~feeder_combout $end
$var wire 1 j SR0|38~q $end
$var wire 1 k DIN0~input_o $end
$var wire 1 l THREEMX|9~0_combout $end
$var wire 1 m THREEMX|9~1_combout $end
$var wire 1 n DFF|9~q $end
$var wire 1 o inst6~combout $end
$upscope $end
$upscope $end
$enddefinitions $end
#0
$dumpvars
1!
0"
1#
0$
1%
0&
0'
0(
1)
0*
0+
0,
0-
0.
0/
00
01
02
03
14
05
06
17
x8
19
1:
1;
0<
0=
0>
0?
0@
0A
0B
0C
0D
0E
1F
0G
1H
1I
1J
0K
0L
0M
1N
0O
0P
0Q
0R
0S
0T
0U
0V
0W
0X
0Y
0Z
0[
1\
1]
1^
0_
0`
1a
0b
0c
0d
0e
0f
0g
0h
0i
0j
0k
0l
0m
0n
1o
$end
#5000
0!
0I
0J
#10000
1!
1I
1J
1O
1b
1<
1R
13
1P
0N
0H
0)
#15000
0!
0I
0J
#20000
1!
1I
1J
1Q
0O
1N
#25000
0!
0I
0J
#30000
0%
1!
0]
1I
1J
0o
0F
04
1O
0P
0N
#35000
0!
0I
0J
#40000
0#
1%
1!
0\
1]
1I
1J
0^
1o
1F
14
0a
0Q
0O
0R
1N
1H
1)
#45000
0!
0I
0J
#50000
1!
1I
1J
1O
0b
0<
1R
03
1P
0N
0H
0)
#55000
0!
0I
0J
#60000
1!
1I
1J
1Q
0O
1N
#65000
0!
0I
0J
#70000
0%
1!
0]
1I
1J
0o
0F
04
1O
0P
0N
#75000
0!
0I
0J
#80000
1"
1%
1!
1k
1]
1I
1J
1l
1o
1F
14
1m
0Q
0O
0R
1N
1H
1)
#85000
0!
0I
0J
#90000
1!
1I
1J
1O
1n
1=
1R
12
1P
0N
0H
0)
#95000
0!
0I
0J
#100000
1!
1I
1J
1Q
0O
1N
#105000
0!
0I
0J
#110000
0%
1!
0]
1I
1J
0o
0F
04
1O
0P
0N
#115000
0!
0I
0J
#120000
1#
1%
1!
1\
1]
1I
1J
1^
1o
1F
14
1a
0Q
0O
0R
1N
1H
1)
#125000
0!
0I
0J
#130000
1!
1I
1J
1O
1b
1<
1R
13
1P
0N
0H
0)
#135000
0!
0I
0J
#140000
1!
1I
1J
1Q
0O
1N
#145000
0!
0I
0J
#150000
0%
1!
0]
1I
1J
0o
0F
04
1O
0P
0N
#155000
0!
0I
0J
#160000
0"
0#
1!
0k
0\
1I
1J
0Q
0O
1_
0R
1N
1H
1)
#165000
0!
0I
0J
#170000
1!
1I
1J
1O
1R
1P
0N
0H
0)
#175000
0!
0I
0J
#180000
1!
1I
1J
1Q
0O
0_
1N
#185000
0!
0I
0J
#190000
1&
1'
1!
1L
1M
1I
1J
1_
1O
0R
0P
0N
1H
1)
#195000
0!
0I
0J
#200000
1(
1!
1K
1I
1J
1c
1S
0Q
0O
0_
1R
1N
0H
0)
0c
0S
#205000
0!
0I
0J
#210000
1!
1I
1J
1O
1P
0N
#215000
0!
0I
0J
#220000
1!
1I
1J
1Q
0O
1_
1N
#225000
0!
0I
0J
#230000
1!
1I
1J
1O
0R
0P
0N
1H
1)
1c
1S
#235000
0!
0I
0J
#240000
0(
1!
0K
1I
1J
0c
0S
0Q
0O
1d
1T
1B
1>
0_
1R
1*
1.
1N
1e
1U
0H
0)
#245000
0!
0I
0J
#250000
1%
1"
1!
1]
1k
1I
1J
0^
1o
1F
14
0a
1O
1f
0d
1V
0T
0B
1C
0>
1?
1+
0*
1/
0.
1P
0N
1g
0e
1W
0U
#255000
0!
0I
0J
#260000
1!
1I
1J
1Q
0O
1h
0f
0b
1X
0V
0C
1D
0<
0?
1@
1,
0+
03
10
0/
1N
1i
0g
1Y
0W
#265000
0!
0I
0J
#270000
1!
1I
1J
1O
1j
0h
1Z
0X
0D
1E
0@
1A
0R
1-
0,
11
00
0P
0N
1c
0i
1S
0Y
1H
1)
#275000
0!
0I
0J
#280000
0'
0%
1!
0M
0]
1I
1J
1R
1_
0o
0F
0H
0)
04
0Q
0O
0j
1d
0Z
1T
1B
0E
1>
0A
0_
0-
1*
01
1.
1N
0c
1e
0S
1U
#285000
0!
0I
0J
#290000
1(
0"
1!
1K
0k
1I
1J
1O
1f
0d
1V
0T
0B
1C
0>
1?
1+
0*
1/
0.
1P
0N
1g
0e
1W
0U
#295000
0!
0I
0J
#300000
1!
1I
1J
1Q
0O
1h
0f
1X
0V
0C
1D
0?
1@
1_
0R
1,
0+
10
0/
1N
1i
0g
1Y
0W
1H
1)
1c
#305000
0!
0I
0J
#310000
1!
1I
1J
1O
1j
0h
1d
1Z
0X
0D
1E
1>
0@
1A
1R
1-
0,
1*
11
00
0P
0N
0i
1e
0Y
0H
0)
1S
#315000
0!
0I
0J
#320000
1!
1I
1J
0Q
0O
0j
1f
0Z
1T
1B
0E
1?
0A
0_
0-
1+
01
1.
1N
0c
1g
0S
1U
#325000
0!
0I
0J
#330000
0(
1!
0K
1I
1J
1O
1h
0d
1V
0T
0B
1C
0>
1@
1,
0*
1/
0.
1P
0N
1i
0e
1W
0U
#335000
0!
0I
0J
#340000
1%
1!
1]
1I
1J
0l
1o
1F
14
0m
1Q
0O
1j
0f
1X
0V
0C
1D
0?
1A
0R
1-
0+
10
0/
1N
1c
0g
1Y
0W
1H
1)
#345000
0!
0I
0J
#350000
1!
1I
1J
1O
0n
0h
1d
1Z
0X
0D
1E
1>
0@
0=
1R
02
0,
1*
11
00
0P
0N
0i
1e
1S
0Y
0H
0)
#355000
0!
0I
0J
#360000
1!
1I
1J
0Q
0O
0j
1f
0Z
1T
1B
0E
1?
0A
0-
1+
01
1.
1N
0c
1g
0S
1U
#365000
0!
0I
0J
#370000
0&
0%
1!
0L
0]
1I
1J
1_
0R
0o
0F
1H
1)
04
1O
1h
0d
1V
0T
0B
1C
0>
1@
1R
1,
0*
1/
0.
1P
0N
1i
0e
1W
0U
0H
0)
#375000
0!
0I
0J
#380000
1(
1!
1K
1I
1J
1Q
0O
1j
0f
1X
0V
0C
1D
0?
1A
0_
1-
0+
10
0/
1N
1c
0g
1Y
0W
#385000
0!
0I
0J
#390000
1!
1I
1J
1O
0h
1d
1Z
0X
0D
1E
1>
0@
0,
1*
11
00
0P
0N
0i
1e
1S
0Y
#395000
0!
0I
0J
#400000
1!
1I
1J
0Q
0O
0j
1f
0Z
1T
1B
0E
1?
0A
1_
0R
0-
1+
01
1.
1N
0c
1g
0S
1U
1H
1)
#405000
0!
0I
0J
#410000
1!
1I
1J
1O
1h
0d
1V
0T
0B
1C
0>
1@
1R
1,
0*
1/
0.
1P
0N
1i
0e
1W
0U
0H
0)
#415000
0!
0I
0J
#420000
0(
1!
0K
1I
1J
1Q
0O
1j
0f
1X
0V
0C
1D
0?
1A
0_
1-
0+
10
0/
1N
1c
0g
1Y
0W
#425000
0!
0I
0J
#430000
1#
1%
1!
1\
1]
1I
1J
1^
1o
1F
14
1a
1O
0h
1d
1Z
0X
0D
1E
1>
0@
0,
1*
11
00
0P
0N
0i
1e
1S
0Y
#435000
0!
0I
0J
#440000
1!
1I
1J
0Q
0O
0j
1f
1b
0Z
1T
1B
0E
1<
1?
0A
0R
0-
1+
13
01
1.
1N
0c
1g
0S
1U
1H
1)
#445000
0!
0I
0J
#450000
1!
1I
1J
1O
1h
0d
1V
0T
0B
1C
0>
1@
1R
1,
0*
1/
0.
1P
0N
1i
0e
1W
0U
0H
0)
#455000
0!
0I
0J
#460000
1'
0%
1!
1M
0]
1I
1J
0R
1_
0o
0F
1H
1)
04
1Q
0O
1j
0f
1X
0V
0C
1D
0?
1A
0_
1R
1-
0+
10
0/
1N
1c
0g
1Y
0W
0H
0)
#465000
0!
0I
0J
#470000
1(
0#
1!
1K
0\
1I
1J
1O
0h
1d
1Z
0X
0D
1E
1>
0@
0,
1*
11
00
0P
0N
0i
1e
1S
0Y
#475000
0!
0I
0J
#480000
1!
1I
1J
0Q
0O
0j
1f
0Z
1T
1B
0E
1?
0A
1_
0-
1+
01
1.
1N
0c
1g
0S
1U
#485000
0!
0I
0J
#490000
1!
1I
1J
1O
1h
0d
1V
0T
0B
1C
0>
1@
0R
1,
0*
1/
0.
1P
0N
1i
0e
1W
0U
1H
1)
1S
#495000
0!
0I
0J
#500000
1!
1I
1J
1Q
0O
1j
0f
1X
0V
1T
1B
0C
1D
0?
1A
0_
1R
1-
0+
10
0/
1.
1N
0g
1Y
0W
1U
0H
0)
1c
0S
#505000
0!
0I
0J
#510000
0(
1!
0K
1I
1J
1O
0h
1d
1Z
0X
1V
0T
0B
1C
0D
1E
1>
0@
0,
1*
11
00
1/
0.
0P
0N
0i
1e
1S
0Y
1W
0U
#515000
0!
0I
0J
#520000
1!
1I
1J
0Q
0O
0j
1f
0Z
1X
0V
1T
1B
0C
1D
0E
1?
0A
1_
0-
1+
01
10
0/
1.
1N
0c
1g
0S
1Y
0W
1U
#525000
0!
0I
0J
#530000
1!
1I
1J
1O
1h
0d
1Z
0X
1V
0T
0B
1C
0D
1E
0>
1@
0R
1,
0*
11
00
1/
0.
1P
0N
1i
0e
1S
0Y
1W
0U
1H
1)
#535000
0!
0I
0J
#540000
1!
1I
1J
1Q
0O
1j
0f
0Z
1X
0V
1T
1B
0C
1D
0E
0?
1A
0_
1R
1-
0+
01
10
0/
1.
1N
1c
0g
0S
1Y
0W
1U
0H
0)
#545000
0!
0I
0J
#550000
0'
1!
0M
1I
1J
1O
0h
1d
1Z
0X
1V
0T
0B
1C
0D
1E
1>
0@
0,
1*
11
00
1/
0.
0P
0N
0i
1e
1S
0Y
1W
0U
#555000
0!
0I
0J
#560000
1!
1I
1J
0Q
0O
0j
1f
0Z
1X
0V
1T
1B
0C
1D
0E
1?
0A
1_
0R
0-
1+
01
10
0/
1.
1N
0c
1g
0S
1Y
0W
1U
1H
1)
#565000
0!
0I
0J
#570000
1!
1I
1J
1O
1h
0d
1Z
0X
1V
0T
0B
1C
0D
1E
0>
1@
1R
1,
0*
11
00
1/
0.
1P
0N
1i
0e
1S
0Y
1W
0U
0H
0)
#575000
0!
0I
0J
#580000
1!
1I
1J
1Q
0O
1j
0f
0Z
1X
0V
1T
1B
0C
1D
0E
0?
1A
0_
1-
0+
01
10
0/
1.
1N
1c
0g
0S
1Y
0W
1U
#585000
0!
0I
0J
#590000
1!
1I
1J
1O
0h
1d
1Z
0X
1V
0T
0B
1C
0D
1E
1>
0@
0,
1*
11
00
1/
0.
0P
0N
0i
1e
1S
0Y
1W
0U
#595000
0!
0I
0J
#600000
1!
1I
1J
0Q
0O
0j
1f
0Z
1X
0V
1T
1B
0C
1D
0E
1?
0A
1_
0R
0-
1+
01
10
0/
1.
1N
0c
1g
0S
1Y
0W
1U
1H
1)
#605000
0!
0I
0J
#610000
1!
1I
1J
1O
1h
0d
1Z
0X
1V
0T
0B
1C
0D
1E
0>
1@
1R
1,
0*
11
00
1/
0.
1P
0N
1i
0e
1S
0Y
1W
0U
0H
0)
#615000
0!
0I
0J
#620000
1!
1I
1J
1Q
0O
1j
0f
0Z
1X
0V
1T
1B
0C
1D
0E
0?
1A
0_
1-
0+
01
10
0/
1.
1N
1c
0g
0S
1Y
0W
1U
#625000
0!
0I
0J
#630000
1&
1'
1!
1L
1M
1I
1J
1_
1O
0h
1d
1Z
0X
1V
0T
0B
1C
0D
1E
1>
0@
0R
0,
1*
11
00
1/
0.
0P
0N
0i
1e
1S
0Y
1W
0U
1H
1)
#635000
0!
0I
0J
#640000
1$
1!
1[
1I
1J
1`
1G
15
1m
0Q
0O
0j
1f
0Z
1X
0V
1T
1B
0C
1D
0E
1?
0A
0_
1R
0-
1+
01
10
0/
1.
0`
1N
0m
0c
1g
0a
0S
1Y
0W
1U
0G
0H
0)
05
1a
#645000
0!
0I
0J
#650000
1!
1I
1J
1O
1h
0d
1Z
0X
1V
0T
0B
1C
0D
1E
0>
1@
1,
0*
11
00
1/
0.
1P
0N
1i
0e
1S
0Y
1W
0U
#655000
0!
0I
0J
#660000
1!
1I
1J
1Q
0O
1j
0f
0Z
1X
0V
1T
1B
0C
1D
0E
0?
1A
1_
1-
0+
01
10
0/
1.
1N
1c
0g
0S
1Y
0W
1U
#665000
0!
0I
0J
#670000
1!
1I
1J
1O
0h
1d
1Z
0X
1V
0T
0B
1C
0D
1E
1>
0@
0R
0,
1*
11
00
1/
0.
1`
0P
0N
0i
1e
1S
0Y
1W
0U
1G
1H
1)
15
1m
#675000
0!
0I
0J
#680000
0'
0$
1!
0M
0[
1I
1J
1R
0`
0G
0H
0)
05
0m
0Q
0O
1n
0j
1f
0Z
1X
0V
1T
1B
0C
1D
0E
1?
0A
1=
0_
1l
12
0-
1+
01
10
0/
1.
1N
0c
1g
0S
1Y
0W
1U
1m
#685000
0!
0I
0J
#690000
1$
1!
1[
1I
1J
1O
1h
0d
1Z
0X
1V
0T
0B
1C
0D
1E
0>
1@
1,
0*
11
00
1/
0.
1P
0N
1i
0e
1S
0Y
1W
0U
#695000
0!
0I
0J
#700000
1!
1I
1J
1Q
0O
1j
0f
0Z
1X
0V
1T
1B
0C
1D
0E
0?
1A
1_
0R
1-
0+
01
10
0/
1.
1N
1c
0g
0S
1Y
0W
1U
1H
1)
1`
1G
15
0a
#705000
0!
0I
0J
#710000
1!
1I
1J
1O
0h
1d
0b
1Z
0X
1V
0T
0B
1C
0D
1E
0<
1>
0@
1R
0^
0,
1*
03
11
00
1/
0.
0`
0P
0N
0i
1e
1S
1a
0Y
1W
0U
0G
0H
0)
05
0a
#715000
0!
0I
0J
#720000
1!
1I
1J
0Q
0O
0j
1f
0Z
1X
0V
1T
1B
0C
1D
0E
1?
0A
0_
0-
1+
01
10
0/
1.
1`
1N
0c
1g
0S
1Y
0W
1U
1G
15
0`
0m
0G
05
1m
#725000
0!
0I
0J
#730000
0&
0$
1!
0L
0[
1I
1J
1_
0R
1H
1)
1O
1h
0d
1Z
0X
1V
0T
0B
1C
0D
1E
0>
1@
1R
1,
0*
11
00
1/
0.
1P
0N
1i
0e
1S
0Y
1W
0U
0H
0)
#735000
0!
0I
0J
#740000
1$
1!
1[
1I
1J
1Q
0O
1j
0f
0Z
1X
0V
1T
1B
0C
1D
0E
0?
1A
0_
1-
0+
01
10
0/
1.
1`
1N
1c
0g
0S
1Y
0W
1U
1G
15
0`
0G
05
#745000
0!
0I
0J
#750000
1!
1I
1J
1O
0h
1d
1Z
0X
1V
0T
0B
1C
0D
1E
1>
0@
0,
1*
11
00
1/
0.
0P
0N
0i
1e
1S
0Y
1W
0U
#755000
0!
0I
0J
#760000
1!
1I
1J
0Q
0O
0j
1f
0Z
1X
0V
1T
1B
0C
1D
0E
1?
0A
1_
0R
0-
1+
01
10
0/
1.
1N
0c
1g
0S
1Y
0W
1U
1H
1)
1`
1G
15
0m
#765000
0!
0I
0J
#770000
1!
1I
1J
1O
0n
1h
0d
1Z
0X
1V
0T
0B
1C
0D
1E
0>
1@
0=
1R
0l
02
1,
0*
11
00
1/
0.
0`
1P
0N
1i
0e
1a
1S
0Y
1W
0U
0G
0H
0)
05
0a
#775000
0!
0I
0J
#780000
1'
0$
1!
1M
0[
1I
1J
0R
1H
1)
1Q
0O
1j
0f
0Z
1X
0V
1T
1B
0C
1D
0E
0?
1A
0_
1R
1-
0+
01
10
0/
1.
1N
1c
0g
0S
1Y
0W
1U
0H
0)
#785000
0!
0I
0J
#790000
1$
1!
1[
1I
1J
1O
0h
1d
1Z
0X
1V
0T
0B
1C
0D
1E
1>
0@
0,
1*
11
00
1/
0.
0P
0N
0i
1e
1S
0Y
1W
0U
#795000
0!
0I
0J
#800000
1!
1I
1J
0Q
0O
0j
1f
0Z
1X
0V
1T
1B
0C
1D
0E
1?
0A
1_
0-
1+
01
10
0/
1.
1N
0c
1g
0S
1Y
0W
1U
#805000
0!
0I
0J
#810000
1!
1I
1J
1O
1h
0d
1Z
0X
1V
0T
0B
1C
0D
1E
0>
1@
0R
1,
0*
11
00
1/
0.
1`
1P
0N
1i
0e
1S
0Y
1W
0U
1G
1H
1)
15
1a
#815000
0!
0I
0J
#820000
1!
1I
1J
1Q
0O
1j
0f
1b
0Z
1X
0V
1T
1B
0C
1D
0E
1<
0?
1A
0_
1R
1^
1-
0+
13
01
10
0/
1.
0`
1N
1m
1c
0g
0S
0a
1Y
0W
1U
0G
0H
0)
05
1a
0m
#825000
0!
0I
0J
#830000
0'
0$
1!
0M
0[
1I
1J
1O
0h
1d
1Z
0X
1V
0T
0B
1C
0D
1E
1>
0@
0,
1*
11
00
1/
0.
0P
0N
0i
1e
1S
0Y
1W
0U
#835000
0!
0I
0J
#840000
1!
1I
1J
0Q
0O
0j
1f
0Z
1X
0V
1T
1B
0C
1D
0E
1?
0A
1_
0R
0-
1+
01
10
0/
1.
1N
0c
1g
0S
1Y
0W
1U
1H
1)
#845000
0!
0I
0J
#850000
1!
1I
1J
1O
1h
0d
1Z
0X
1V
0T
0B
1C
0D
1E
0>
1@
1R
1,
0*
11
00
1/
0.
1P
0N
1i
0e
1S
0Y
1W
0U
0H
0)
#855000
0!
0I
0J
#860000
1!
1I
1J
1Q
0O
1j
0f
0Z
1X
0V
1T
1B
0C
1D
0E
0?
1A
0_
1-
0+
01
10
0/
1.
1N
1c
0g
0S
1Y
0W
1U
#865000
0!
0I
0J
#870000
1!
1I
1J
1O
0h
1d
1Z
0X
1V
0T
0B
1C
0D
1E
1>
0@
0,
1*
11
00
1/
0.
0P
0N
0i
1e
1S
0Y
1W
0U
#875000
0!
0I
0J
#880000
1!
1I
1J
0Q
0O
0j
1f
0Z
1X
0V
1T
1B
0C
1D
0E
1?
0A
1_
0R
0-
1+
01
10
0/
1.
1N
0c
1g
0S
1Y
0W
1U
1H
1)
#885000
0!
0I
0J
#890000
1!
1I
1J
1O
1h
0d
1Z
0X
1V
0T
0B
1C
0D
1E
0>
1@
1R
1,
0*
11
00
1/
0.
1P
0N
1i
0e
1S
0Y
1W
0U
0H
0)
#895000
0!
0I
0J
#900000
1!
1I
1J
1Q
0O
1j
0f
0Z
1X
0V
1T
1B
0C
1D
0E
0?
1A
0_
1-
0+
01
10
0/
1.
1N
1c
0g
0S
1Y
0W
1U
#905000
0!
0I
0J
#910000
1!
1I
1J
1O
0h
1d
1Z
0X
1V
0T
0B
1C
0D
1E
1>
0@
0,
1*
11
00
1/
0.
0P
0N
0i
1e
1S
0Y
1W
0U
#915000
0!
0I
0J
#920000
1!
1I
1J
0Q
0O
0j
1f
0Z
1X
0V
1T
1B
0C
1D
0E
1?
0A
1_
0R
0-
1+
01
10
0/
1.
1N
0c
1g
0S
1Y
0W
1U
1H
1)
#925000
0!
0I
0J
#930000
1!
1I
1J
1O
1h
0d
1Z
0X
1V
0T
0B
1C
0D
1E
0>
1@
1R
1,
0*
11
00
1/
0.
1P
0N
1i
0e
1S
0Y
1W
0U
0H
0)
#935000
0!
0I
0J
#940000
1!
1I
1J
1Q
0O
1j
0f
0Z
1X
0V
1T
1B
0C
1D
0E
0?
1A
0_
1-
0+
01
10
0/
1.
1N
1c
0g
0S
1Y
0W
1U
#945000
0!
0I
0J
#950000
1!
1I
1J
1O
0h
1d
1Z
0X
1V
0T
0B
1C
0D
1E
1>
0@
0,
1*
11
00
1/
0.
0P
0N
0i
1e
1S
0Y
1W
0U
#955000
0!
0I
0J
#960000
1!
1I
1J
0Q
0O
0j
1f
0Z
1X
0V
1T
1B
0C
1D
0E
1?
0A
1_
0R
0-
1+
01
10
0/
1.
1N
0c
1g
0S
1Y
0W
1U
1H
1)
#965000
0!
0I
0J
#970000
1!
1I
1J
1O
1h
0d
1Z
0X
1V
0T
0B
1C
0D
1E
0>
1@
1R
1,
0*
11
00
1/
0.
1P
0N
1i
0e
1S
0Y
1W
0U
0H
0)
#975000
0!
0I
0J
#980000
1!
1I
1J
1Q
0O
1j
0f
0Z
1X
0V
1T
1B
0C
1D
0E
0?
1A
0_
1-
0+
01
10
0/
1.
1N
1c
0g
0S
1Y
0W
1U
#985000
0!
0I
0J
#990000
1!
1I
1J
1O
0h
1d
1Z
0X
1V
0T
0B
1C
0D
1E
1>
0@
0,
1*
11
00
1/
0.
0P
0N
0i
1e
1S
0Y
1W
0U
#995000
0!
0I
0J
