lab1/simulation/qsim/lab1.msim.vcd
$comment
	File created using the following command:
		vcd file lab1.msim.vcd -direction
$end
$date
	Sun Sep 20 11:27:59 2020
$end
$version
	ModelSim Version 10.5b
$end
$timescale
	1ps
$end

$scope module Block1_vlg_vec_tst $end
$var reg 1 ! A $end
$var reg 1 " B $end
$var reg 1 # C $end
$var wire 1 $ NEG_B $end
$var wire 1 % Z $end

$scope module i1 $end
$var wire 1 & gnd $end
$var wire 1 ' vcc $end
$var wire 1 ( unknown $end
$var tri1 1 ) devclrn $end
$var tri1 1 * devpor $end
$var tri1 1 + devoe $end
$var wire 1 , NEG_B~output_o $end
$var wire 1 - Z~output_o $end
$var wire 1 . B~input_o $end
$var wire 1 / A~input_o $end
$var wire 1 0 C~input_o $end
$var wire 1 1 inst3|4~0_combout $end
$upscope $end
$upscope $end
$enddefinitions $end
#0
$dumpvars
1!
0"
1#
1$
1%
0&
1'
x(
1)
1*
1+
1,
1-
0.
1/
10
11
$end
#50000
1"
1.
0,
0$
#100000
0"
0.
1,
1$
#150000
1"
1.
0,
0$
#200000
0"
0.
1,
1$
#250000
1"
1.
0,
0$
#300000
0"
0.
1,
1$
#350000
1"
1.
0,
0$
#400000
0"
0.
1,
1$
#450000
1"
1.
0,
0$
#500000
0"
0.
1,
1$
#550000
1"
1.
0,
0$
#600000
0"
0.
1,
1$
#650000
1"
1.
0,
0$
#700000
0"
0.
1,
1$
#750000
1"
1.
0,
0$
#800000
0"
0.
1,
1$
#850000
1"
1.
0,
0$
#900000
0"
0.
1,
1$
#950000
1"
1.
0,
0$
